<<<<<<< HEAD
     February 22    
Su Mo Tu We Th Fr Sa
 1  2  3  4  5  6  7
 8  9 10 11 12 13 14
15 16 17 18 19 20 21
22 23 24 25 26 27 28


=======
    August 2013       
Su Mo Tu We Th Fr Sa  
             1  2  3  
 4  5  6  7  8  9 10  
11 12 13 14 15 16 17  
18 19 20 21 22 23 24  
25 _2_6 27 28 29 30 31  
                      
>>>>>>> d798bf3d102a1933529449c4213a080b4642b20c
