%!PS-Adobe-3.0
%%BoundingBox: 38 24 574 768
%%Title: Enscript Output
%%For: Wesley Mackey
%%Creator: GNU enscript 1.6.4
%%CreationDate: Fri Mar 29 19:09:57 2013
%%Orientation: Portrait
%%Pages: (atend)
%%DocumentMedia: Letter 612 792 0 () ()
%%DocumentNeededResources: (atend)
%%EndComments
%%BeginProlog
%%BeginResource: procset Enscript-Prolog 1.6 4
%
% Procedures.
%

/_S {	% save current state
  /_s save def
} def
/_R {	% restore from saved state
  _s restore
} def

/S {	% showpage protecting gstate
  gsave
  showpage
  grestore
} bind def

/MF {	% fontname newfontname -> -	make a new encoded font
  /newfontname exch def
  /fontname exch def

  /fontdict fontname findfont def
  /newfont fontdict maxlength dict def

  fontdict {
    exch
    dup /FID eq {
      % skip FID pair
      pop pop
    } {
      % copy to the new font dictionary
      exch newfont 3 1 roll put
    } ifelse
  } forall

  newfont /FontName newfontname put

  % insert only valid encoding vectors
  encoding_vector length 256 eq {
    newfont /Encoding encoding_vector put
  } if

  newfontname newfont definefont pop
} def

/MF_PS { % fontname newfontname -> -	make a new font preserving its enc
  /newfontname exch def
  /fontname exch def

  /fontdict fontname findfont def
  /newfont fontdict maxlength dict def

  fontdict {
    exch
    dup /FID eq {
      % skip FID pair
      pop pop
    } {
      % copy to the new font dictionary
      exch newfont 3 1 roll put
    } ifelse
  } forall

  newfont /FontName newfontname put

  newfontname newfont definefont pop
} def

/SF { % fontname width height -> -	set a new font
  /height exch def
  /width exch def

  findfont
  [width 0 0 height 0 0] makefont setfont
} def

/SUF { % fontname width height -> -	set a new user font
  /height exch def
  /width exch def

  /F-gs-user-font MF
  /F-gs-user-font width height SF
} def

/SUF_PS { % fontname width height -> -	set a new user font preserving its enc
  /height exch def
  /width exch def

  /F-gs-user-font MF_PS
  /F-gs-user-font width height SF
} def

/M {moveto} bind def
/s {show} bind def

/Box {	% x y w h -> -			define box path
  /d_h exch def /d_w exch def /d_y exch def /d_x exch def
  d_x d_y  moveto
  d_w 0 rlineto
  0 d_h rlineto
  d_w neg 0 rlineto
  closepath
} def

/bgs {	% x y height blskip gray str -> -	show string with bg color
  /str exch def
  /gray exch def
  /blskip exch def
  /height exch def
  /y exch def
  /x exch def

  gsave
    x y blskip sub str stringwidth pop height Box
    gray setgray
    fill
  grestore
  x y M str s
} def

/bgcs { % x y height blskip red green blue str -> -  show string with bg color
  /str exch def
  /blue exch def
  /green exch def
  /red exch def
  /blskip exch def
  /height exch def
  /y exch def
  /x exch def

  gsave
    x y blskip sub str stringwidth pop height Box
    red green blue setrgbcolor
    fill
  grestore
  x y M str s
} def

% Highlight bars.
/highlight_bars {	% nlines lineheight output_y_margin gray -> -
  gsave
    setgray
    /ymarg exch def
    /lineheight exch def
    /nlines exch def

    % This 2 is just a magic number to sync highlight lines to text.
    0 d_header_y ymarg sub 2 sub translate

    /cw d_output_w cols div def
    /nrows d_output_h ymarg 2 mul sub lineheight div cvi def

    % for each column
    0 1 cols 1 sub {
      cw mul /xp exch def

      % for each rows
      0 1 nrows 1 sub {
        /rn exch def
        rn lineheight mul neg /yp exch def
        rn nlines idiv 2 mod 0 eq {
	  % Draw highlight bar.  4 is just a magic indentation.
	  xp 4 add yp cw 8 sub lineheight neg Box fill
	} if
      } for
    } for

  grestore
} def

% Line highlight bar.
/line_highlight {	% x y width height gray -> -
  gsave
    /gray exch def
    Box gray setgray fill
  grestore
} def

% Column separator lines.
/column_lines {
  gsave
    .1 setlinewidth
    0 d_footer_h translate
    /cw d_output_w cols div def
    1 1 cols 1 sub {
      cw mul 0 moveto
      0 d_output_h rlineto stroke
    } for
  grestore
} def

% Column borders.
/column_borders {
  gsave
    .1 setlinewidth
    0 d_footer_h moveto
    0 d_output_h rlineto
    d_output_w 0 rlineto
    0 d_output_h neg rlineto
    closepath stroke
  grestore
} def

% Do the actual underlay drawing
/draw_underlay {
  ul_style 0 eq {
    ul_str true charpath stroke
  } {
    ul_str show
  } ifelse
} def

% Underlay
/underlay {	% - -> -
  gsave
    0 d_page_h translate
    d_page_h neg d_page_w atan rotate

    ul_gray setgray
    ul_font setfont
    /dw d_page_h dup mul d_page_w dup mul add sqrt def
    ul_str stringwidth pop dw exch sub 2 div ul_h_ptsize -2 div moveto
    draw_underlay
  grestore
} def

/user_underlay {	% - -> -
  gsave
    ul_x ul_y translate
    ul_angle rotate
    ul_gray setgray
    ul_font setfont
    0 0 ul_h_ptsize 2 div sub moveto
    draw_underlay
  grestore
} def

% Page prefeed
/page_prefeed {		% bool -> -
  statusdict /prefeed known {
    statusdict exch /prefeed exch put
  } {
    pop
  } ifelse
} def

% Wrapped line markers
/wrapped_line_mark {	% x y charwith charheight type -> -
  /type exch def
  /h exch def
  /w exch def
  /y exch def
  /x exch def

  type 2 eq {
    % Black boxes (like TeX does)
    gsave
      0 setlinewidth
      x w 4 div add y M
      0 h rlineto w 2 div 0 rlineto 0 h neg rlineto
      closepath fill
    grestore
  } {
    type 3 eq {
      % Small arrows
      gsave
        .2 setlinewidth
        x w 2 div add y h 2 div add M
        w 4 div 0 rlineto
        x w 4 div add y lineto stroke

        x w 4 div add w 8 div add y h 4 div add M
        x w 4 div add y lineto
	w 4 div h 8 div rlineto stroke
      grestore
    } {
      % do nothing
    } ifelse
  } ifelse
} def

% EPSF import.

/BeginEPSF {
  /b4_Inc_state save def    		% Save state for cleanup
  /dict_count countdictstack def	% Count objects on dict stack
  /op_count count 1 sub def		% Count objects on operand stack
  userdict begin
  /showpage { } def
  0 setgray 0 setlinecap
  1 setlinewidth 0 setlinejoin
  10 setmiterlimit [ ] 0 setdash newpath
  /languagelevel where {
    pop languagelevel
    1 ne {
      false setstrokeadjust false setoverprint
    } if
  } if
} bind def

/EndEPSF {
  count op_count sub { pos } repeat	% Clean up stacks
  countdictstack dict_count sub { end } repeat
  b4_Inc_state restore
} bind def

% Check PostScript language level.
/languagelevel where {
  pop /gs_languagelevel languagelevel def
} {
  /gs_languagelevel 1 def
} ifelse
%%EndResource
%%BeginResource: procset Enscript-Encoding-88591 1.6 4
/encoding_vector [
/.notdef      	/.notdef      	/.notdef      	/.notdef      	
/.notdef      	/.notdef      	/.notdef      	/.notdef      	
/.notdef      	/.notdef      	/.notdef      	/.notdef      	
/.notdef      	/.notdef      	/.notdef      	/.notdef      	
/.notdef      	/.notdef      	/.notdef      	/.notdef      	
/.notdef      	/.notdef      	/.notdef      	/.notdef      	
/.notdef      	/.notdef      	/.notdef      	/.notdef      	
/.notdef      	/.notdef      	/.notdef      	/.notdef      	
/space        	/exclam       	/quotedbl     	/numbersign   	
/dollar       	/percent      	/ampersand    	/quoteright   	
/parenleft    	/parenright   	/asterisk     	/plus         	
/comma        	/hyphen       	/period       	/slash        	
/zero         	/one          	/two          	/three        	
/four         	/five         	/six          	/seven        	
/eight        	/nine         	/colon        	/semicolon    	
/less         	/equal        	/greater      	/question     	
/at           	/A            	/B            	/C            	
/D            	/E            	/F            	/G            	
/H            	/I            	/J            	/K            	
/L            	/M            	/N            	/O            	
/P            	/Q            	/R            	/S            	
/T            	/U            	/V            	/W            	
/X            	/Y            	/Z            	/bracketleft  	
/backslash    	/bracketright 	/asciicircum  	/underscore   	
/quoteleft    	/a            	/b            	/c            	
/d            	/e            	/f            	/g            	
/h            	/i            	/j            	/k            	
/l            	/m            	/n            	/o            	
/p            	/q            	/r            	/s            	
/t            	/u            	/v            	/w            	
/x            	/y            	/z            	/braceleft    	
/bar          	/braceright   	/tilde        	/.notdef      	
/.notdef      	/.notdef      	/.notdef      	/.notdef      	
/.notdef      	/.notdef      	/.notdef      	/.notdef      	
/.notdef      	/.notdef      	/.notdef      	/.notdef      	
/.notdef      	/.notdef      	/.notdef      	/.notdef      	
/.notdef      	/.notdef      	/.notdef      	/.notdef      	
/.notdef      	/.notdef      	/.notdef      	/.notdef      	
/.notdef      	/.notdef      	/.notdef      	/.notdef      	
/.notdef      	/.notdef      	/.notdef      	/.notdef      	
/space        	/exclamdown   	/cent         	/sterling     	
/currency     	/yen          	/brokenbar    	/section      	
/dieresis     	/copyright    	/ordfeminine  	/guillemotleft	
/logicalnot   	/hyphen       	/registered   	/macron       	
/degree       	/plusminus    	/twosuperior  	/threesuperior	
/acute        	/mu           	/paragraph    	/bullet       	
/cedilla      	/onesuperior  	/ordmasculine 	/guillemotright	
/onequarter   	/onehalf      	/threequarters	/questiondown 	
/Agrave       	/Aacute       	/Acircumflex  	/Atilde       	
/Adieresis    	/Aring        	/AE           	/Ccedilla     	
/Egrave       	/Eacute       	/Ecircumflex  	/Edieresis    	
/Igrave       	/Iacute       	/Icircumflex  	/Idieresis    	
/Eth          	/Ntilde       	/Ograve       	/Oacute       	
/Ocircumflex  	/Otilde       	/Odieresis    	/multiply     	
/Oslash       	/Ugrave       	/Uacute       	/Ucircumflex  	
/Udieresis    	/Yacute       	/Thorn        	/germandbls   	
/agrave       	/aacute       	/acircumflex  	/atilde       	
/adieresis    	/aring        	/ae           	/ccedilla     	
/egrave       	/eacute       	/ecircumflex  	/edieresis    	
/igrave       	/iacute       	/icircumflex  	/idieresis    	
/eth          	/ntilde       	/ograve       	/oacute       	
/ocircumflex  	/otilde       	/odieresis    	/divide       	
/oslash       	/ugrave       	/uacute       	/ucircumflex  	
/udieresis    	/yacute       	/thorn        	/ydieresis    	
] def
%%EndResource
%%EndProlog
%%BeginSetup
%%IncludeResource: font Courier-Bold
%%IncludeResource: font Courier
/HFpt_w 10 def
/HFpt_h 10 def
/Courier-Bold /HF-gs-font MF
/HF /HF-gs-font findfont [HFpt_w 0 0 HFpt_h 0 0] makefont def
/Courier /F-gs-font MF
/F-gs-font 10 10 SF
/#copies 1 def
% Pagedevice definitions:
gs_languagelevel 1 gt {
  <<
    /PageSize [612 792] 
  >> setpagedevice
} if
%%BeginResource: procset Enscript-Header-enscript 1.6 4
%%IncludeResource: font Times-Bold
%%IncludeResource: font Times-Roman

% Fonts.
/Times-Bold /HeaderFont-Bold MF
/HeaderDateF /HeaderFont-Bold findfont 12 scalefont def

/Times-Roman /HeaderFont-Times MF
/HeaderHDRF /HeaderFont-Times findfont 14 scalefont def

/HeaderPageNumF /Helvetica-Bold findfont 28.8 scalefont def

/do_header {	% print enscript header
  gsave
    d_header_x d_header_y translate

    % light bar
    0 0 d_header_w d_header_h 2 div Box
    .95 setgray fill

    % dark gray boxes
    /dbw d_header_h 2 mul def	% dark box width
    /dbc .7 def			% dark box color

    % left dark box.
    0 0 dbw d_header_h Box
    dbc setgray fill

    0 setgray 
    HeaderDateF setfont
    moddatestr dup stringwidth pop dbw exch sub 2 div 
    d_header_h 2 div 2 add moveto show
    modtimestr dup stringwidth pop dbw exch sub 2 div 
    d_header_h 5 div moveto show

    % right dark box
    d_header_w dbw sub 0 dbw d_header_h Box
    dbc setgray fill

    HeaderPageNumF setfont
    1 setgray
    pagenumstr dup
    stringwidth pop dbw exch sub 2 div d_header_w dbw sub add
    d_header_h .2 mul moveto show

    % filename
    0 setgray 
    HeaderHDRF setfont
    d_header_w fname stringwidth pop sub 2 div d_header_h 8 div moveto
    fname show

    % user supplied header string.
    user_header_p {
      /h d_header_h 8 div 5 mul def

      % Implement strict enscript compatibility.
      user_header_center_str () eq user_header_right_str () eq and {
        d_header_w user_header_left_str stringwidth pop sub 2 div 
        h moveto user_header_left_str show
      } {
        dbw 5 add h moveto user_header_left_str show

        d_header_w user_header_center_str stringwidth pop sub 2 div 
        h moveto user_header_center_str show

	d_header_w dbw sub 5 sub user_header_right_str stringwidth pop
	sub h moveto user_header_right_str show
      } ifelse
    } if

  grestore
} def
%%EndResource
/d_page_w 536 def
/d_page_h 744 def
/d_header_x 0 def
/d_header_y 708 def
/d_header_w 536 def
/d_header_h 36 def
/d_footer_x 0 def
/d_footer_y 0 def
/d_footer_w 536 def
/d_footer_h 0 def
/d_output_w 536 def
/d_output_h 708 def
/cols 1 def
%%EndSetup
%%Page: (1) 1
%%BeginPageSetup
_S
38 24 translate
/pagenum 1 def
/fname (jcal.java) def
/fdir () def
/ftail (jcal.java) def
% User defined strings:
/pagenumstr (1) def
/moddatestr (03/29/13) def
/modtimestr (19:09:56) def
/user_header_p true def
/user_header_left_str ($cmps012b-wm/Assignments/asg1j-jcal-3darray/code/) def
/user_header_center_str () def
/user_header_right_str () def
/user_footer_p false def
%%EndPageSetup
column_borders
do_header
30 695 M (1:) s
48 695 M
(// $Id: jcal.java,v 1.2 2013-03-27 21:24:26-07 - - $) s
30 684 M (2:) s
30 673 M (3:) s
48 673 M
(import java.util.GregorianCalendar;) s
30 662 M (4:) s
48 662 M
(import java.util.Locale;) s
30 651 M (5:) s
48 651 M
(import static java.lang.System.*;) s
30 640 M (6:) s
30 629 M (7:) s
48 629 M
(class jcal {) s
30 618 M (8:) s
48 618 M
(   static final int MONTHS_IN_YEAR = 12;) s
30 607 M (9:) s
48 607 M
(   static final int WEEKS_IN_MONTH =  6;) s
24 596 M (10:) s
48 596 M
(   static final int DAYS_IN_WEEK   =  7;) s
24 585 M (11:) s
24 574 M (12:) s
48 574 M
(   public static void main \(String[] args\) {) s
24 563 M (13:) s
48 563 M
(      int[][] month = new int[WEEKS_IN_MONTH][DAYS_IN_WEEK];) s
24 552 M (14:) s
48 552 M
(      for \(int[] week: month\) {) s
24 541 M (15:) s
48 541 M
(         for \(int day = 0; day < week.length; ++day\) {) s
24 530 M (16:) s
48 530 M
(            out.printf \(day == 0 ? "%2d" : "%3d", week[day]\);) s
24 519 M (17:) s
48 519 M
(         }) s
24 508 M (18:) s
48 508 M
(         out.printf \("%n"\);) s
24 497 M (19:) s
48 497 M
(      }) s
24 486 M (20:) s
48 486 M
(      misclib.die \("Nothing has been implemented."\);) s
24 475 M (21:) s
48 475 M
(   }) s
24 464 M (22:) s
24 453 M (23:) s
48 453 M
(}) s
24 442 M (24:) s
_R
S
%%Page: (1) 2
%%BeginPageSetup
_S
38 24 translate
/pagenum 1 def
/fname (misclib.java) def
/fdir () def
/ftail (misclib.java) def
% User defined strings:
/pagenumstr (1) def
/moddatestr (03/29/13) def
/modtimestr (19:09:56) def
/user_header_p true def
/user_header_left_str ($cmps012b-wm/Assignments/asg1j-jcal-3darray/code/) def
/user_header_center_str () def
/user_header_right_str () def
/user_footer_p false def
%%EndPageSetup
column_borders
do_header
30 695 M (1:) s
48 695 M
(// $Id: misclib.java,v 1.5 2013-03-28 17:04:49-07 - - $) s
30 684 M (2:) s
30 673 M (3:) s
48 673 M
(import static java.lang.System.*;) s
30 662 M (4:) s
30 651 M (5:) s
48 651 M
(class misclib {) s
30 640 M (6:) s
48 640 M
(   public static final int EXIT_SUCCESS = 0;) s
30 629 M (7:) s
48 629 M
(   public static final int EXIT_FAILURE = 1;) s
30 618 M (8:) s
48 618 M
(   public static int exit_status = EXIT_SUCCESS;) s
30 607 M (9:) s
24 596 M (10:) s
48 596 M
(   //) s
24 585 M (11:) s
48 585 M
(   // program_name - Extract the basename of the jar file containing) s
24 574 M (12:) s
48 574 M
(   // the Java program, which appears as the class path.) s
24 563 M (13:) s
48 563 M
(   //) s
24 552 M (14:) s
48 552 M
(   public static String program_name\(\) {) s
24 541 M (15:) s
48 541 M
(      String jarname = getProperty \("java.class.path"\);) s
24 530 M (16:) s
48 530 M
(      return jarname.substring \(jarname.lastIndexOf \("/"\) + 1\);) s
24 519 M (17:) s
48 519 M
(   }) s
24 508 M (18:) s
24 497 M (19:) s
48 497 M
(   //) s
24 486 M (20:) s
48 486 M
(   // warn - Print a warning and set exit status to failure.) s
24 475 M (21:) s
48 475 M
(   //) s
24 464 M (22:) s
48 464 M
(   public static void warn \(Object... args\) {) s
24 453 M (23:) s
48 453 M
(      exit_status = EXIT_FAILURE;) s
24 442 M (24:) s
48 442 M
(      out.flush\(\);) s
24 431 M (25:) s
48 431 M
(      err.printf \("%s", program_name\(\)\);) s
24 420 M (26:) s
48 420 M
(      for \(Object arg: args\) err.printf \(": %s", arg\);) s
24 409 M (27:) s
48 409 M
(      err.printf \("%n"\);) s
24 398 M (28:) s
48 398 M
(      err.flush\(\);) s
24 387 M (29:) s
48 387 M
(   }) s
24 376 M (30:) s
24 365 M (31:) s
48 365 M
(   //) s
24 354 M (32:) s
48 354 M
(   // die - Print a warning and exit program.) s
24 343 M (33:) s
48 343 M
(   //) s
24 332 M (34:) s
48 332 M
(   public static void die \(Object... args\) {) s
24 321 M (35:) s
48 321 M
(      warn \(args\);) s
24 310 M (36:) s
48 310 M
(      exit \(exit_status\);) s
24 299 M (37:) s
48 299 M
(   }) s
24 288 M (38:) s
24 277 M (39:) s
48 277 M
(}) s
_R
S
%%Page: (1) 3
%%BeginPageSetup
_S
38 24 translate
/pagenum 1 def
/fname (Makefile) def
/fdir () def
/ftail (Makefile) def
% User defined strings:
/pagenumstr (1) def
/moddatestr (03/29/13) def
/modtimestr (19:09:56) def
/user_header_p true def
/user_header_left_str ($cmps012b-wm/Assignments/asg1j-jcal-3darray/code/) def
/user_header_center_str () def
/user_header_right_str () def
/user_footer_p false def
%%EndPageSetup
column_borders
do_header
30 695 M (1:) s
48 695 M
(# $Id: Makefile,v 1.4 2013-03-28 17:04:49-07 - - $) s
30 684 M (2:) s
30 673 M (3:) s
48 673 M
(export PATH := ${PATH}:/afs/cats.ucsc.edu/courses/cmps012b-wm/bin) s
30 662 M (4:) s
30 651 M (5:) s
48 651 M
(JAVASRC    = jcal.java misclib.java) s
30 640 M (6:) s
48 640 M
(SOURCES    = ${JAVASRC} Makefile README) s
30 629 M (7:) s
48 629 M
(MAINCLASS  = jcal) s
30 618 M (8:) s
48 618 M
(CLASSES    = ${JAVASRC:.java=.class}) s
30 607 M (9:) s
48 607 M
(JARCLASSES = ${CLASSES}) s
24 596 M (10:) s
48 596 M
(JARFILE    = jcal) s
24 585 M (11:) s
48 585 M
(LISTING    = Listing.ps) s
24 574 M (12:) s
48 574 M
(CLASS      = cmps012b-wm.s13) s
24 563 M (13:) s
48 563 M
(PROJ       = asg1) s
24 552 M (14:) s
24 541 M (15:) s
48 541 M
(all : ${JARFILE}) s
24 530 M (16:) s
24 519 M (17:) s
48 519 M
(${JARFILE} : ${CLASSES}) s
24 508 M (18:) s
48 508 M
(        echo Main-class: ${MAINCLASS} >Manifest) s
24 497 M (19:) s
48 497 M
(        jar cvfm ${JARFILE} Manifest ${JARCLASSES}) s
24 486 M (20:) s
48 486 M
(        - rm Manifest) s
24 475 M (21:) s
48 475 M
(        chmod +x ${JARFILE}) s
24 464 M (22:) s
24 453 M (23:) s
48 453 M
(%.class : %.java) s
24 442 M (24:) s
48 442 M
(        - checksource $<) s
24 431 M (25:) s
48 431 M
(        - cid + $<) s
24 420 M (26:) s
48 420 M
(        javac $<) s
24 409 M (27:) s
24 398 M (28:) s
48 398 M
(clean :) s
24 387 M (29:) s
48 387 M
(        - rm ${JARCLASSES} Manifest) s
24 376 M (30:) s
24 365 M (31:) s
48 365 M
(spotless : clean) s
24 354 M (32:) s
48 354 M
(        - rm ${JARFILE}) s
24 343 M (33:) s
24 332 M (34:) s
48 332 M
(ci : ${SOURCES}) s
24 321 M (35:) s
48 321 M
(        - checksource ${SOURCES}) s
24 310 M (36:) s
48 310 M
(        cid + ${SOURCES}) s
24 299 M (37:) s
24 288 M (38:) s
48 288 M
(lis : ${SOURCES}) s
24 277 M (39:) s
48 277 M
(        mkpspdf ${LISTING} ${SOURCES}) s
24 266 M (40:) s
24 255 M (41:) s
48 255 M
(submit : ${SOURCES}) s
24 244 M (42:) s
48 244 M
(        submit ${CLASS} ${PROJ} ${SOURCES}) s
24 233 M (43:) s
48 233 M
(        ls -goatr /afs/cats.ucsc.edu/class/${CLASS}/${PROJ}/${USER}) s
24 222 M (44:) s
48 222 M
(        ls -goatr ${SOURCES}) s
24 211 M (45:) s
48 211 M
(        ) s
24 200 M (46:) s
48 200 M
(again:) s
24 189 M (47:) s
48 189 M
(        gmake --no-print-directory spotless ci all lis) s
24 178 M (48:) s
_R
S
%%Page: (1) 4
%%BeginPageSetup
_S
38 24 translate
/pagenum 1 def
/fname (README) def
/fdir () def
/ftail (README) def
% User defined strings:
/pagenumstr (1) def
/moddatestr (03/29/13) def
/modtimestr (19:09:56) def
/user_header_p true def
/user_header_left_str ($cmps012b-wm/Assignments/asg1j-jcal-3darray/code/) def
/user_header_center_str () def
/user_header_right_str () def
/user_footer_p false def
%%EndPageSetup
column_borders
do_header
30 695 M (1:) s
48 695 M
($Id: README,v 1.1 2011-08-18 17:48:01-07 - - $) s
_R
S
%%Trailer
%%Pages: 4
%%DocumentNeededResources: font Times-Roman Courier-Bold Courier 
%%+ font Times-Bold 
%%EOF
